{
  "titulo": "Lupita Yoh",
  "email": "Lupitayoh-5@hotmail.com",
  "nombre_corto" : "Lupitayoh",
  "facebook": "https://facebook.com",
  "twitter": "https://twitter.com",
  "instagram": "https://instagram.com",
  "equipo_trabajo": []
}
